Lab4/simulation/qsim/LogicalStep_Lab4.msim.vcd
$comment
	File created using the following command:
		vcd file LogicalStep_Lab4.msim.vcd -direction
$end
$date
	Fri Mar 23 09:00:00 2018
$end
$version
	ModelSim Version 10.4b
$end
$timescale
	1ps
$end

$scope module LogicalStep_Lab4_top_vlg_vec_tst $end
$var reg 1 ! clkin_50 $end
$var reg 4 " pb [3:0] $end
$var reg 1 # rst_n $end
$var reg 8 $ sw [7:0] $end
$var wire 1 % leds [7] $end
$var wire 1 & leds [6] $end
$var wire 1 ' leds [5] $end
$var wire 1 ( leds [4] $end
$var wire 1 ) leds [3] $end
$var wire 1 * leds [2] $end
$var wire 1 + leds [1] $end
$var wire 1 , leds [0] $end
$var wire 1 - seg7_char1 $end
$var wire 1 . seg7_char2 $end
$var wire 1 / seg7_data [6] $end
$var wire 1 0 seg7_data [5] $end
$var wire 1 1 seg7_data [4] $end
$var wire 1 2 seg7_data [3] $end
$var wire 1 3 seg7_data [2] $end
$var wire 1 4 seg7_data [1] $end
$var wire 1 5 seg7_data [0] $end

$scope module i1 $end
$var wire 1 6 gnd $end
$var wire 1 7 vcc $end
$var wire 1 8 unknown $end
$var tri1 1 9 devclrn $end
$var tri1 1 : devpor $end
$var tri1 1 ; devoe $end
$var wire 1 < ~QUARTUS_CREATED_GND~I_combout $end
$var wire 1 = ~QUARTUS_CREATED_UNVM~~busy $end
$var wire 1 > ~QUARTUS_CREATED_ADC1~~eoc $end
$var wire 1 ? seg7_data[1]~output_o $end
$var wire 1 @ seg7_data[5]~output_o $end
$var wire 1 A seg7_data[6]~output_o $end
$var wire 1 B leds[0]~output_o $end
$var wire 1 C leds[1]~output_o $end
$var wire 1 D leds[2]~output_o $end
$var wire 1 E leds[3]~output_o $end
$var wire 1 F leds[4]~output_o $end
$var wire 1 G leds[5]~output_o $end
$var wire 1 H leds[6]~output_o $end
$var wire 1 I leds[7]~output_o $end
$var wire 1 J seg7_data[0]~output_o $end
$var wire 1 K seg7_data[2]~output_o $end
$var wire 1 L seg7_data[3]~output_o $end
$var wire 1 M seg7_data[4]~output_o $end
$var wire 1 N seg7_char1~output_o $end
$var wire 1 O seg7_char2~output_o $end
$var wire 1 P clkin_50~input_o $end
$var wire 1 Q clkin_50~inputclkctrl_outclk $end
$var wire 1 R bin_counter[0]~69_combout $end
$var wire 1 S bin_counter[1]~23_combout $end
$var wire 1 T bin_counter[1]~24 $end
$var wire 1 U bin_counter[2]~25_combout $end
$var wire 1 V bin_counter[2]~26 $end
$var wire 1 W bin_counter[3]~27_combout $end
$var wire 1 X bin_counter[3]~28 $end
$var wire 1 Y bin_counter[4]~29_combout $end
$var wire 1 Z bin_counter[4]~30 $end
$var wire 1 [ bin_counter[5]~31_combout $end
$var wire 1 \ bin_counter[5]~32 $end
$var wire 1 ] bin_counter[6]~33_combout $end
$var wire 1 ^ bin_counter[6]~34 $end
$var wire 1 _ bin_counter[7]~35_combout $end
$var wire 1 ` bin_counter[7]~36 $end
$var wire 1 a bin_counter[8]~37_combout $end
$var wire 1 b bin_counter[8]~38 $end
$var wire 1 c bin_counter[9]~39_combout $end
$var wire 1 d bin_counter[9]~40 $end
$var wire 1 e bin_counter[10]~41_combout $end
$var wire 1 f bin_counter[10]~42 $end
$var wire 1 g bin_counter[11]~43_combout $end
$var wire 1 h bin_counter[11]~44 $end
$var wire 1 i bin_counter[12]~45_combout $end
$var wire 1 j bin_counter[12]~46 $end
$var wire 1 k bin_counter[13]~47_combout $end
$var wire 1 l bin_counter[13]~48 $end
$var wire 1 m bin_counter[14]~49_combout $end
$var wire 1 n bin_counter[14]~50 $end
$var wire 1 o bin_counter[15]~51_combout $end
$var wire 1 p bin_counter[15]~52 $end
$var wire 1 q bin_counter[16]~53_combout $end
$var wire 1 r bin_counter[16]~54 $end
$var wire 1 s bin_counter[17]~55_combout $end
$var wire 1 t bin_counter[17]~56 $end
$var wire 1 u bin_counter[18]~57_combout $end
$var wire 1 v bin_counter[18]~58 $end
$var wire 1 w bin_counter[19]~59_combout $end
$var wire 1 x bin_counter[19]~60 $end
$var wire 1 y bin_counter[20]~61_combout $end
$var wire 1 z bin_counter[20]~62 $end
$var wire 1 { bin_counter[21]~63_combout $end
$var wire 1 | bin_counter[21]~64 $end
$var wire 1 } bin_counter[22]~65_combout $end
$var wire 1 ~ bin_counter[22]~66 $end
$var wire 1 !! bin_counter[23]~67_combout $end
$var wire 1 "! bin_counter[23]~clkctrl_outclk $end
$var wire 1 #! pb[2]~input_o $end
$var wire 1 $! pb[1]~input_o $end
$var wire 1 %! sw[5]~input_o $end
$var wire 1 &! sw[4]~input_o $end
$var wire 1 '! INST1|ud_bin_counter[0]~3_combout $end
$var wire 1 (! rst_n~input_o $end
$var wire 1 )! INST1|ud_bin_counter[1]~5_cout $end
$var wire 1 *! INST1|ud_bin_counter[1]~6_combout $end
$var wire 1 +! INST2|eq~0_combout $end
$var wire 1 ,! sw[7]~input_o $end
$var wire 1 -! sw[6]~input_o $end
$var wire 1 .! INST1|ud_bin_counter[1]~7 $end
$var wire 1 /! INST1|ud_bin_counter[2]~9 $end
$var wire 1 0! INST1|ud_bin_counter[3]~10_combout $end
$var wire 1 1! INST2|less~0_combout $end
$var wire 1 2! MEALY0|Selector8~0_combout $end
$var wire 1 3! INST2|eq~combout $end
$var wire 1 4! pb[3]~input_o $end
$var wire 1 5! MEALY0|Selector15~0_combout $end
$var wire 1 6! MEALY0|current_stateX.X0~q $end
$var wire 1 7! MEALY0|Selector10~0_combout $end
$var wire 1 8! MEALY0|current_stateX.ERRORX~q $end
$var wire 1 9! MEALY0|current_stateX.ERRORX~clkctrl_outclk $end
$var wire 1 :! MEALY0|EXTDX~combout $end
$var wire 1 ;! INST5|Selector10~0_combout $end
$var wire 1 <! INST6|sreg~3_combout $end
$var wire 1 =! INST5|shift_en~combout $end
$var wire 1 >! INST5|Equal0~0_combout $end
$var wire 1 ?! INST5|Selector8~0_combout $end
$var wire 1 @! INST5|next_state.extend_hold_189~combout $end
$var wire 1 A! INST5|current_state.extend_hold~feeder_combout $end
$var wire 1 B! INST5|current_state.extend_hold~q $end
$var wire 1 C! INST5|Selector10~1_combout $end
$var wire 1 D! INST5|next_state.extending_199~combout $end
$var wire 1 E! INST5|current_state.extending~feeder_combout $end
$var wire 1 F! INST5|current_state.extending~q $end
$var wire 1 G! INST6|sreg~0_combout $end
$var wire 1 H! INST6|sreg[0]~feeder_combout $end
$var wire 1 I! INST6|sreg~1_combout $end
$var wire 1 J! INST6|sreg~2_combout $end
$var wire 1 K! INST5|Equal1~0_combout $end
$var wire 1 L! INST5|Selector4~0_combout $end
$var wire 1 M! INST5|next_state.retracted_hold_159~combout $end
$var wire 1 N! INST5|current_state.retracted_hold~feeder_combout $end
$var wire 1 O! INST5|current_state.retracted_hold~q $end
$var wire 1 P! INST5|Selector0~0_combout $end
$var wire 1 Q! INST5|next_state.extended_179~combout $end
$var wire 1 R! INST5|current_state.extended~q $end
$var wire 1 S! INST5|Selector2~0_combout $end
$var wire 1 T! INST5|next_state.retracting_169~combout $end
$var wire 1 U! INST5|current_state.retracting~feeder_combout $end
$var wire 1 V! INST5|current_state.retracting~q $end
$var wire 1 W! INST5|Selector13~0_combout $end
$var wire 1 X! INST5|Selector13~0clkctrl_outclk $end
$var wire 1 Y! INST5|Selector12~0_combout $end
$var wire 1 Z! INST5|next_state.start_209~combout $end
$var wire 1 [! INST5|current_state.start~0_combout $end
$var wire 1 \! INST5|current_state.start~q $end
$var wire 1 ]! MEALY0|Selector5~2_combout $end
$var wire 1 ^! sw[0]~input_o $end
$var wire 1 _! sw[1]~input_o $end
$var wire 1 `! sw[2]~input_o $end
$var wire 1 a! INST3|ud_bin_counter[1]~5_cout $end
$var wire 1 b! INST3|ud_bin_counter[1]~6_combout $end
$var wire 1 c! INST4|less~2_combout $end
$var wire 1 d! sw[3]~input_o $end
$var wire 1 e! INST3|ud_bin_counter[1]~7 $end
$var wire 1 f! INST3|ud_bin_counter[2]~9 $end
$var wire 1 g! INST3|ud_bin_counter[3]~10_combout $end
$var wire 1 h! INST4|less~1_combout $end
$var wire 1 i! INST4|grtr~0_combout $end
$var wire 1 j! MEALY0|Ycount~1_combout $end
$var wire 1 k! MEALY0|Ycount~combout $end
$var wire 1 l! INST3|process_0~0_combout $end
$var wire 1 m! INST3|ud_bin_counter[2]~8_combout $end
$var wire 1 n! INST4|less~0_combout $end
$var wire 1 o! MEALY0|Transition_Section2~0_combout $end
$var wire 1 p! MEALY0|Selector5~0_combout $end
$var wire 1 q! INST4|less~3_combout $end
$var wire 1 r! MEALY0|Selector4~0_combout $end
$var wire 1 s! INST4|eq~combout $end
$var wire 1 t! MEALY0|Selector4~1_combout $end
$var wire 1 u! MEALY0|Selector4~2_combout $end
$var wire 1 v! MEALY0|Selector4~3_combout $end
$var wire 1 w! MEALY0|current_stateY.YSTOP~q $end
$var wire 1 x! MEALY0|Selector5~1_combout $end
$var wire 1 y! MEALY0|Selector5~3_combout $end
$var wire 1 z! MEALY0|current_stateY.YMOVE~q $end
$var wire 1 {! MEALY0|clk_enY~combout $end
$var wire 1 |! INST3|ud_bin_counter[0]~3_combout $end
$var wire 1 }! INST4|eq~0_combout $end
$var wire 1 ~! MEALY0|current_stateY.Y0~0_combout $end
$var wire 1 !" MEALY0|current_stateY.Y0~q $end
$var wire 1 "" MEALY0|Selector2~1_combout $end
$var wire 1 #" MEALY0|Selector2~2_combout $end
$var wire 1 $" MEALY0|current_stateY.ERRORY~q $end
$var wire 1 %" MEALY0|current_stateY.ERRORY~clkctrl_outclk $end
$var wire 1 &" MEALY0|Selector1~0_combout $end
$var wire 1 '" MEALY0|EXTDY~combout $end
$var wire 1 (" INST5|Selector6~0_combout $end
$var wire 1 )" INST5|Selector6~1_combout $end
$var wire 1 *" INST5|next_state.done_149~combout $end
$var wire 1 +" INST5|current_state.done~q $end
$var wire 1 ," MEALY0|Selector2~0_combout $end
$var wire 1 -" MEALY0|Selector12~3_combout $end
$var wire 1 ." INST2|less~2_combout $end
$var wire 1 /" INST2|less~1_combout $end
$var wire 1 0" MEALY0|Selector12~0_combout $end
$var wire 1 1" MEALY0|Selector12~1_combout $end
$var wire 1 2" MEALY0|Selector12~2_combout $end
$var wire 1 3" MEALY0|Selector12~4_combout $end
$var wire 1 4" MEALY0|current_stateX.XSTOP~q $end
$var wire 1 5" MEALY0|Selector14~0_combout $end
$var wire 1 6" MEALY0|Selector14~1_combout $end
$var wire 1 7" MEALY0|current_stateX.XMOVE~q $end
$var wire 1 8" MEALY0|Transition_Section~0_combout $end
$var wire 1 9" MEALY0|clk_enX~combout $end
$var wire 1 :" INST2|grtr~0_combout $end
$var wire 1 ;" MEALY0|Xcount~1_combout $end
$var wire 1 <" MEALY0|Xcount~combout $end
$var wire 1 =" INST1|process_0~0_combout $end
$var wire 1 >" INST1|ud_bin_counter[2]~8_combout $end
$var wire 1 ?" XOUT[2]~2_combout $end
$var wire 1 @" XOUT[1]~1_combout $end
$var wire 1 A" XOUT[0]~0_combout $end
$var wire 1 B" XOUT[3]~3_combout $end
$var wire 1 C" INST20|Mux5~0_combout $end
$var wire 1 D" MEALY0|ledY~combout $end
$var wire 1 E" MEALY0|ledX~combout $end
$var wire 1 F" INST35|next_state.error_off~0_combout $end
$var wire 1 G" INST35|current_state.error_off~q $end
$var wire 1 H" YOUT[0]~0_combout $end
$var wire 1 I" YOUT[1]~1_combout $end
$var wire 1 J" YOUT[2]~2_combout $end
$var wire 1 K" YOUT[3]~3_combout $end
$var wire 1 L" INST30|Mux5~0_combout $end
$var wire 1 M" INST40|DOUT_TEMP[1]~0_combout $end
$var wire 1 N" INST30|Mux1~0_combout $end
$var wire 1 O" INST20|Mux1~0_combout $end
$var wire 1 P" INST40|DOUT_TEMP[5]~1_combout $end
$var wire 1 Q" INST20|Mux0~0_combout $end
$var wire 1 R" INST30|Mux0~0_combout $end
$var wire 1 S" INST40|DOUT_TEMP[6]~2_combout $end
$var wire 1 T" MEALY0|ERRORled~combout $end
$var wire 1 U" pb[0]~input_o $end
$var wire 1 V" INST7|Decoder_Section~0_combout $end
$var wire 1 W" INST7|current_state.light_on~q $end
$var wire 1 X" INST7|led~combout $end
$var wire 1 Y" INST20|Mux6~0_combout $end
$var wire 1 Z" INST30|Mux6~0_combout $end
$var wire 1 [" INST40|DOUT[0]~0_combout $end
$var wire 1 \" INST20|Mux4~0_combout $end
$var wire 1 ]" INST30|Mux4~0_combout $end
$var wire 1 ^" INST40|DOUT[2]~2_combout $end
$var wire 1 _" INST20|Mux3~0_combout $end
$var wire 1 `" INST30|Mux3~0_combout $end
$var wire 1 a" INST40|DOUT[3]~3_combout $end
$var wire 1 b" INST20|Mux2~0_combout $end
$var wire 1 c" INST30|Mux2~0_combout $end
$var wire 1 d" INST40|DOUT[4]~4_combout $end
$var wire 1 e" INST1|ud_bin_counter [3] $end
$var wire 1 f" INST1|ud_bin_counter [2] $end
$var wire 1 g" INST1|ud_bin_counter [1] $end
$var wire 1 h" INST1|ud_bin_counter [0] $end
$var wire 1 i" INST3|ud_bin_counter [3] $end
$var wire 1 j" INST3|ud_bin_counter [2] $end
$var wire 1 k" INST3|ud_bin_counter [1] $end
$var wire 1 l" INST3|ud_bin_counter [0] $end
$var wire 1 m" INST6|sreg [3] $end
$var wire 1 n" INST6|sreg [2] $end
$var wire 1 o" INST6|sreg [1] $end
$var wire 1 p" INST6|sreg [0] $end
$var wire 1 q" bin_counter [25] $end
$var wire 1 r" bin_counter [24] $end
$var wire 1 s" bin_counter [23] $end
$var wire 1 t" bin_counter [22] $end
$var wire 1 u" bin_counter [21] $end
$var wire 1 v" bin_counter [20] $end
$var wire 1 w" bin_counter [19] $end
$var wire 1 x" bin_counter [18] $end
$var wire 1 y" bin_counter [17] $end
$var wire 1 z" bin_counter [16] $end
$var wire 1 {" bin_counter [15] $end
$var wire 1 |" bin_counter [14] $end
$var wire 1 }" bin_counter [13] $end
$var wire 1 ~" bin_counter [12] $end
$var wire 1 !# bin_counter [11] $end
$var wire 1 "# bin_counter [10] $end
$var wire 1 ## bin_counter [9] $end
$var wire 1 $# bin_counter [8] $end
$var wire 1 %# bin_counter [7] $end
$var wire 1 &# bin_counter [6] $end
$var wire 1 '# bin_counter [5] $end
$var wire 1 (# bin_counter [4] $end
$var wire 1 )# bin_counter [3] $end
$var wire 1 *# bin_counter [2] $end
$var wire 1 +# bin_counter [1] $end
$var wire 1 ,# bin_counter [0] $end
$upscope $end
$upscope $end
$enddefinitions $end
#0
$dumpvars
0!
bx11 "
0#
bx $
x,
0+
0*
0)
0(
0'
0&
0%
0-
1.
x5
z4
x3
x2
x1
z0
z/
06
17
x8
19
1:
1;
0<
z=
z>
z?
z@
zA
xB
0C
0D
0E
0F
0G
0H
0I
xJ
xK
xL
xM
0N
1O
0P
0Q
1R
0S
0T
0U
1V
0W
0X
0Y
1Z
0[
0\
0]
1^
0_
0`
0a
1b
0c
0d
0e
1f
0g
0h
0i
1j
0k
0l
0m
1n
0o
0p
0q
1r
0s
0t
0u
1v
0w
0x
0y
1z
0{
0|
0}
1~
0!!
0"!
x#!
1$!
x%!
x&!
x'!
0(!
0)!
x*!
x+!
x,!
x-!
1.!
0/!
x0!
x1!
02!
x3!
x4!
x5!
06!
07!
08!
09!
0:!
0;!
0<!
0=!
0>!
0?!
0@!
0A!
0B!
0C!
0D!
0E!
0F!
0G!
0H!
0I!
0J!
1K!
0L!
0M!
0N!
0O!
0P!
0Q!
0R!
0S!
0T!
0U!
0V!
0W!
0X!
0Y!
1Z!
0[!
0\!
1]!
x^!
x_!
x`!
0a!
xb!
xc!
xd!
1e!
0f!
xg!
xh!
xi!
0j!
xk!
xl!
xm!
xn!
xo!
0p!
xq!
0r!
xs!
xt!
0u!
xv!
0w!
0x!
xy!
0z!
x{!
x|!
x}!
x~!
0!"
0""
0#"
0$"
0%"
0&"
0'"
0("
0)"
0*"
0+"
0,"
0-"
x."
x/"
x0"
x1"
x2"
x3"
04"
x5"
x6"
07"
x8"
x9"
x:"
0;"
x<"
x="
x>"
x?"
x@"
xA"
xB"
xC"
xD"
xE"
xF"
0G"
xH"
xI"
xJ"
xK"
xL"
xM"
xN"
xO"
xP"
xQ"
xR"
xS"
xT"
1U"
0V"
0W"
0X"
xY"
xZ"
x["
x\"
x]"
x^"
x_"
x`"
xa"
xb"
xc"
xd"
0h"
0g"
0f"
0e"
0l"
0k"
0j"
0i"
0p"
0o"
0n"
0m"
0,#
0+#
0*#
0)#
0(#
0'#
0&#
0%#
0$#
0##
0"#
0!#
0~"
0}"
0|"
0{"
0z"
0y"
0x"
0w"
0v"
0u"
0t"
0s"
zr"
zq"
$end
#10000
1!
1P
1Q
1,#
1S
0R
#20000
0!
0P
0Q
#30000
1!
1P
1Q
1+#
0,#
1R
#40000
0!
0P
0Q
#50000
1!
1P
1Q
1,#
1T
0S
0R
1U
#60000
0!
0P
0Q
#70000
1!
1P
1Q
1*#
0+#
0,#
0V
0T
0U
1R
1V
1W
1U
0W
#80000
1#
0!
0P
1(!
0Q
#90000
1!
1P
1Q
1,#
1S
0R
#100000
0!
0P
0Q
#110000
1!
1P
1Q
1+#
0,#
1R
#120000
0!
0P
0Q
#130000
1!
1P
1Q
1,#
1T
0S
0R
0V
0U
1W
#140000
0!
0P
0Q
#150000
1!
1P
1Q
1)#
0*#
0+#
0,#
1X
1V
0T
0W
1U
1R
0X
1Y
1W
0U
0Y
#160000
0!
0P
0Q
#170000
1!
1P
1Q
1,#
1S
0R
#180000
0!
0P
0Q
#190000
1!
1P
1Q
1+#
0,#
1R
#200000
0!
0P
0Q
#210000
1!
1P
1Q
1,#
1T
0S
0R
1U
#220000
0!
0P
0Q
#230000
1!
1P
1Q
1*#
0+#
0,#
0V
0T
0U
1R
1X
1V
0W
1U
0X
1Y
1W
0Y
#240000
bx10 "
0!
0P
0U"
0Q
#250000
1!
1P
1Q
1,#
1S
0R
#260000
0!
0P
0Q
#270000
1!
1P
1Q
1+#
0,#
1R
#280000
0!
0P
0Q
#290000
1!
1P
1Q
1,#
1T
0S
0R
0V
0U
1X
0W
1Y
#300000
0!
0P
0Q
#310000
1!
1P
1Q
1(#
0)#
0*#
0+#
0,#
0Z
0X
1V
0T
0Y
1W
1U
1R
1Z
1[
1Y
0W
0U
0[
#320000
0!
0P
0Q
#330000
1!
1P
1Q
1,#
1S
0R
#340000
0!
0P
0Q
#350000
1!
1P
1Q
1+#
0,#
1R
#360000
0!
0P
0Q
#370000
1!
1P
1Q
1,#
1T
0S
0R
1U
#380000
0!
0P
0Q
#390000
1!
1P
1Q
1*#
0+#
0,#
0V
0T
0U
1R
1V
1W
1U
0W
#400000
0!
0P
0Q
#410000
1!
1P
1Q
1,#
1S
0R
#420000
bx11 "
0!
0P
1U"
0Q
#430000
1!
1P
1Q
1+#
0,#
1R
#440000
0!
0P
0Q
#450000
1!
1P
1Q
1,#
1T
0S
0R
0V
0U
1W
#460000
0!
0P
0Q
#470000
1!
1P
1Q
1)#
0*#
0+#
0,#
1X
1V
0T
0W
1U
1R
0Z
0X
0Y
1W
0U
1Z
1[
1Y
0[
#480000
0!
0P
0Q
#490000
1!
1P
1Q
1,#
1S
0R
#500000
0!
0P
0Q
#510000
1!
1P
1Q
1+#
0,#
1R
#520000
0!
0P
0Q
#530000
1!
1P
1Q
1,#
1T
0S
0R
1U
#540000
0!
0P
0Q
#550000
1!
1P
1Q
1*#
0+#
0,#
0V
0T
0U
1R
1X
1V
0W
1U
0Z
0X
0Y
1W
1Z
1[
1Y
0[
#560000
0!
0P
0Q
#570000
1!
1P
1Q
1,#
1S
0R
#580000
0!
0P
0Q
#590000
1!
1P
1Q
1+#
0,#
1R
#600000
bx10 "
0!
0P
0U"
0Q
#610000
1!
1P
1Q
1,#
1T
0S
0R
0V
0U
1X
0W
0Z
0Y
1[
#620000
0!
0P
0Q
#630000
1!
1P
1Q
1'#
0(#
0)#
0*#
0+#
0,#
1\
1Z
0X
1V
0T
0[
1Y
1W
1U
1R
0\
1]
1[
0Y
0W
0U
0]
#640000
bx00 "
0!
0P
0$!
0Q
#650000
1!
1P
1Q
1,#
1S
0R
#660000
0!
0P
0Q
#670000
1!
1P
1Q
1+#
0,#
1R
#680000
0!
0P
0Q
#690000
1!
1P
1Q
1,#
1T
0S
0R
1U
#700000
0!
0P
0Q
#710000
1!
1P
1Q
1*#
0+#
0,#
0V
0T
0U
1R
1V
1W
1U
0W
#720000
0!
0P
0Q
#730000
1!
1P
1Q
1,#
1S
0R
#740000
0!
0P
0Q
#750000
1!
1P
1Q
1+#
0,#
1R
#760000
0!
0P
0Q
#770000
1!
1P
1Q
1,#
1T
0S
0R
0V
0U
1W
#780000
bx10 "
0!
0P
1$!
0Q
#790000
1!
1P
1Q
1)#
0*#
0+#
0,#
1X
1V
0T
0W
1U
1R
0X
1Y
1W
0U
0Y
#800000
0!
0P
0Q
#810000
1!
1P
1Q
1,#
1S
0R
#820000
0!
0P
0Q
#830000
1!
1P
1Q
1+#
0,#
1R
#840000
0!
0P
0Q
#850000
1!
1P
1Q
1,#
1T
0S
0R
1U
#860000
0!
0P
0Q
#870000
1!
1P
1Q
1*#
0+#
0,#
0V
0T
0U
1R
1X
1V
0W
1U
0X
1Y
1W
0Y
#880000
0!
0P
0Q
#890000
1!
1P
1Q
1,#
1S
0R
#900000
0!
0P
0Q
#910000
1!
1P
1Q
1+#
0,#
1R
#920000
0!
0P
0Q
#930000
1!
1P
1Q
1,#
1T
0S
0R
0V
0U
1X
0W
1Y
#940000
0!
0P
0Q
#950000
1!
1P
1Q
1(#
0)#
0*#
0+#
0,#
0Z
0X
1V
0T
0Y
1W
1U
1R
1\
1Z
0[
1Y
0W
0U
0\
1]
1[
0]
#960000
0!
0P
0Q
#970000
1!
1P
1Q
1,#
1S
0R
#980000
0!
0P
0Q
#990000
1!
1P
1Q
1+#
0,#
1R
